1 999999 525
178960 148986 383
181517 971835 525
444571 507639 444
717068 802925 468
892828 214582 525
2184 247370 443
571242 31157 470
377911 587048 470
992918 744908 525
560216 278803 470
471236 425476 444
52384 675914 509
339691 156275 443
824736 15918 509
782527 449248 509
477308 245978 449
448976 873834 525
352091 983543 525
461980 145008 449
909473 180773 525
7702 848786 525
60040 472362 449
612423 341103 470
125320 856189 525
998567 158733 525
120160 580017 470
778049 727378 468
366375 590518 470
827889 227523 509
834186 881919 525
987334 961994 458
659610 88832 509
537741 835645 509
474 90 144
157 240 128
4 103 119
249 160 128
183 438 144
107 58 119
154 110 122
106 174 125
121 115 96
71 426 144
477 74 144
324 165 131
500 411 142
72 194 125
224 384 144
220 489 144
82 239 128
286 341 144
237 432 144
374 261 144
290 406 144
313 153 131
147 398 144
394 28 144
27 205 125
298 234 128
170 199 125
265 333 144
117 140 122
226 303 128
409 44 144
291 268 118
8 318 131
209 422 144
233 481 144
335 308 144
396 99 144
14 33 112
155 479 144
358 66 144
80 69 116
86 371 144
454 267 144
445 273 144
216 295 128
12 244 128
175 119 125
180 83 125
120 73 119
408 186 144
129 166 122
184 373 144
436 242 144
97 201 125
200 252 128
375 452 134
458 229 144
35 256 128
10 437 144
439 450 116
16 43 112
19 483 144
93 351 144
164 471 144
348 404 126
203 361 144
487 377 142
296 379 144
421 355 134
283 235 128
344 393 126
423 218 144
219 53 125
462 302 144
258 288 123
469 444 129
292 402 144
339 352 126
182 211 120
463 179 144
299 347 144
478 46 144
390 67 144
370 378 108
387 459 134
323 196 131
289 272 105
307 391 144
89 457 144
178 264 128
247 349 144
300 47 128
359 342 126
222 345 144
482 451 129
442 271 144
22 3 21
274 362 144
417 177 144
152 11 122
221 232 128
228 332 144
108 287 128
331 372 126
144 466 144
315 440 144
151 156 86
275 480 144
246 98 128
322 210 131
356 281 144
330 18 144
236 40 128
185 79 125
350 380 126
251 5 128
280 84 128
405 191 144
250 207 128
309 168 128
114 48 119
124 248 128
388 1 144
319 441 144
285 433 144
494 100 144
75 416 144
461 23 144
297 128 128
486 29 144
188 257 128
427 476 129
255 38 128
270 6 128
123 493 144
130 407 144
253 142 128
60 399 144
269 415 144
403 338 126
413 485 134
64 25 113
431 412 134
263 70 128
473 312 144
172 435 144
369 266 144
357 386 121
465 208 144
277 141 128
134 169 117
212 76 125
91 327 144
95 150 122
449 311 144
260 167 128
215 223 115
15 206 125
126 42 119
419 310 144
92 227 125
448 68 144
453 36 144
26 293 128
262 101 128
456 430 116
176 9 125
214 254 128
346 198 144
243 193 128
104 328 144
146 173 125
105 30 119
468 143 144
113 17 119
284 158 128
381 418 134
340 217 144
392 470 134
132 161 117
353 163 144
51 467 144
294 360 144
190 495 144
81 429 144
401 301 144
56 116 119
400 334 126
488 316 144
385 122 144
96 498 144
34 367 144
94 484 144
425 225 144
447 241 144
55 181 125
63 492 144
389 314 144
2 420 144
326 139 131
